<?xml version="1.0" encoding="UTF-8" standalone="no"?>
<svg
   xmlns:dc="http://purl.org/dc/elements/1.1/"
   xmlns:cc="http://creativecommons.org/ns#"
   xmlns:rdf="http://www.w3.org/1999/02/22-rdf-syntax-ns#"
   xmlns:svg="http://www.w3.org/2000/svg"
   xmlns="http://www.w3.org/2000/svg"
   xmlns:sodipodi="http://sodipodi.sourceforge.net/DTD/sodipodi-0.dtd"
   xmlns:inkscape="http://www.inkscape.org/namespaces/inkscape"
   width="1024"
   height="1024"
   viewBox="0 0 270.93333 270.93333"
   version="1.1"
   id="svg8"
   inkscape:version="1.0.1 (3bc2e813f5, 2020-09-07)"
   sodipodi:docname="icon.svg"
   inkscape:export-filename="/home/louis/code/wikimap/wikimap/icon-192x192.png"
   inkscape:export-xdpi="18.000002"
   inkscape:export-ydpi="18.000002">
  <defs
     id="defs2" />
  <sodipodi:namedview
     id="base"
     pagecolor="#ffffff"
     bordercolor="#666666"
     borderopacity="1.0"
     inkscape:pageopacity="0.0"
     inkscape:pageshadow="2"
     inkscape:zoom="0.18638652"
     inkscape:cx="583.10756"
     inkscape:cy="1189.6499"
     inkscape:document-units="mm"
     inkscape:current-layer="layer2"
     inkscape:document-rotation="0"
     showgrid="true"
     units="px"
     width="256px"
     inkscape:window-width="1566"
     inkscape:window-height="817"
     inkscape:window-x="0"
     inkscape:window-y="0"
     inkscape:window-maximized="1">
    <inkscape:grid
       type="xygrid"
       id="grid12" />
  </sodipodi:namedview>
  <metadata
     id="metadata5">
    <rdf:RDF>
      <cc:Work
         rdf:about="">
        <dc:format>image/svg+xml</dc:format>
        <dc:type
           rdf:resource="http://purl.org/dc/dcmitype/StillImage" />
        <dc:title />
      </cc:Work>
    </rdf:RDF>
  </metadata>
  <g
     inkscape:groupmode="layer"
     id="layer2"
     inkscape:label="Background"
     style="display:none">
    <rect
       style="opacity:1;fill:#ffffff;stroke:#000000;stroke-width:0;stroke-miterlimit:4;stroke-dasharray:none"
       id="rect844"
       width="402.16669"
       height="381"
       x="-63.5"
       y="-63.5" />
    <path
       style="opacity:1;fill:#ffffff;fill-opacity:1;stroke:none;stroke-width:0;stroke-miterlimit:4;stroke-dasharray:none"
       d="M -218.98907,478.76158 V -218.71375 H 518.72522 1256.4395 V 478.76158 1176.2369 H 518.72522 -218.98907 Z"
       id="path846"
       transform="scale(0.26458333)" />
  </g>
  <g
     inkscape:label="Layer 1"
     inkscape:groupmode="layer"
     id="layer1"
     style="display:inline">
    <g
       id="g1051"
       transform="translate(-14.287514,0.26457241)">
      <polygon
         points="1,1 0,1 0.5,0 "
         fill="#fc4e2a"
         stroke="#000000"
         stroke-width="0.07"
         id="polygon1007"
         transform="matrix(108.99917,0,0,108.99917,43.925413,146.82489)" />
      <polygon
         points="0.5,0 1,1 0,1 "
         fill="#fc4e2a"
         stroke="#000000"
         stroke-width="0.07"
         id="polygon1007-8"
         transform="matrix(108.99917,0,0,108.99917,155.05045,109.7832)" />
      <polygon
         points="0,1 0.5,0 1,1 "
         fill="#fc4e2a"
         stroke="#000000"
         stroke-width="0.07"
         id="polygon1007-8-5"
         transform="matrix(108.99917,0,0,108.99917,70.383748,19.295692)" />
    </g>
  </g>
</svg>
